<?xml version="1.0" encoding="UTF-8"?>
<glyph name="t3t4u1" format="2">
	<advance width="2259.058735634"/>
	<outline>
		<component base="t3t4"/>
		<component base="u_sign_drop_small" xOffset="1818.7135286207" yOffset="-429.9730344155"/>
	</outline>
	<lib>
		<dict>
			<key>org.fontforge.glyphclass</key>
			<string>baseligature</string>
		</dict>
	</lib>
</glyph>
