<?xml version="1.0" encoding="UTF-8"?>
<glyph name="W" format="2">
	<unicode hex="0057"/>
	<advance height="2048" width="1877"/>
	<outline>
		<contour>
			<point x="1398" y="13" type="curve" smooth="yes"/>
			<point x="1849" y="1340" type="line"/>
			<point x="1851" y="1345"/>
			<point x="1852" y="1350"/>
			<point x="1852" y="1355" type="curve" smooth="yes"/>
			<point x="1852" y="1377"/>
			<point x="1808" y="1381"/>
			<point x="1793" y="1381" type="curve" smooth="yes"/>
			<point x="1767" y="1381"/>
			<point x="1741" y="1373"/>
			<point x="1735" y="1357" type="curve" smooth="yes"/>
			<point x="1345" y="209" type="line"/>
			<point x="1051" y="1342" type="line" smooth="yes"/>
			<point x="1044" y="1368"/>
			<point x="1006" y="1381"/>
			<point x="966" y="1381" type="curve" smooth="yes"/>
			<point x="945" y="1381"/>
			<point x="885" y="1372"/>
			<point x="878" y="1345" type="curve" smooth="yes"/>
			<point x="588" y="209" type="line"/>
			<point x="196" y="1343" type="line" smooth="yes"/>
			<point x="187" y="1369"/>
			<point x="149" y="1381"/>
			<point x="111" y="1381" type="curve" smooth="yes"/>
			<point x="68" y="1381"/>
			<point x="25" y="1365"/>
			<point x="25" y="1337" type="curve" smooth="yes"/>
			<point x="25" y="1330"/>
			<point x="26" y="1327"/>
			<point x="28" y="1321" type="curve" smooth="yes"/>
			<point x="483" y="11" type="line" smooth="yes"/>
			<point x="493" y="-20"/>
			<point x="541" y="-24"/>
			<point x="568" y="-24" type="curve" smooth="yes"/>
			<point x="609" y="-24"/>
			<point x="651" y="-10"/>
			<point x="657" y="14" type="curve" smooth="yes"/>
			<point x="938" y="1114" type="line"/>
			<point x="1223" y="13" type="line" smooth="yes"/>
			<point x="1230" y="-12"/>
			<point x="1267" y="-24"/>
			<point x="1305" y="-24" type="curve" smooth="yes"/>
			<point x="1333" y="-24"/>
			<point x="1388" y="-18"/>
		</contour>
	</outline>
</glyph>
