<?xml version="1.0" encoding="UTF-8"?>
<glyph name="icircumflex" format="2">
	<unicode hex="00EE"/>
	<advance width="273"/>
	<outline>
		<component base="dotlessi"/>
		<component base="asciicircum" xOffset="-228" yOffset="-40"/>
	</outline>
</glyph>
