<?xml version="1.0" encoding="UTF-8"?>
<glyph name="th1th2" format="2">
	<advance height="2048" width="2719"/>
	<outline>
		<contour>
			<point x="831" y="-24" type="curve" smooth="yes"/>
			<point x="957" y="-24"/>
			<point x="1061" y="34"/>
			<point x="1122" y="148" type="curve" smooth="yes"/>
			<point x="1163" y="224"/>
			<point x="1180" y="315"/>
			<point x="1180" y="401" type="curve" smooth="yes"/>
			<point x="1180" y="610"/>
			<point x="1095" y="790"/>
			<point x="926" y="910" type="curve"/>
			<point x="973" y="924"/>
			<point x="1011" y="930"/>
			<point x="1059" y="930" type="curve" smooth="yes"/>
			<point x="1204" y="930"/>
			<point x="1333" y="835"/>
			<point x="1399" y="706" type="curve" smooth="yes"/>
			<point x="1442" y="623"/>
			<point x="1463" y="544"/>
			<point x="1463" y="450" type="curve" smooth="yes"/>
			<point x="1464" y="304"/>
			<point x="1415" y="134"/>
			<point x="1280" y="62" type="curve" smooth="yes"/>
			<point x="1267" y="55"/>
			<point x="1260" y="46"/>
			<point x="1260" y="36" type="curve" smooth="yes"/>
			<point x="1260" y="11"/>
			<point x="1300" y="0"/>
			<point x="1320" y="0" type="curve" smooth="yes"/>
			<point x="2558" y="0" type="line" smooth="yes"/>
			<point x="2577" y="0"/>
			<point x="2619" y="9"/>
			<point x="2619" y="36" type="curve" smooth="yes"/>
			<point x="2619" y="603" type="line" smooth="yes"/>
			<point x="2619" y="844"/>
			<point x="2417" y="999"/>
			<point x="2193" y="999" type="curve" smooth="yes"/>
			<point x="1965" y="999"/>
			<point x="1783" y="853"/>
			<point x="1783" y="610" type="curve" smooth="yes"/>
			<point x="1783" y="71" type="line"/>
			<point x="1447" y="71" type="line"/>
			<point x="1551" y="183"/>
			<point x="1585" y="300"/>
			<point x="1585" y="450" type="curve" smooth="yes"/>
			<point x="1585" y="550"/>
			<point x="1562" y="637"/>
			<point x="1517" y="726" type="curve" smooth="yes"/>
			<point x="1428" y="900"/>
			<point x="1250" y="1000"/>
			<point x="1059" y="1000" type="curve" smooth="yes"/>
			<point x="978" y="1000"/>
			<point x="908" y="987"/>
			<point x="832" y="959" type="curve"/>
			<point x="756" y="987"/>
			<point x="686" y="1000"/>
			<point x="605" y="1000" type="curve" smooth="yes"/>
			<point x="416" y="1000"/>
			<point x="236" y="899"/>
			<point x="148" y="726" type="curve" smooth="yes"/>
			<point x="101" y="635"/>
			<point x="80" y="531"/>
			<point x="80" y="429" type="curve" smooth="yes"/>
			<point x="80" y="265"/>
			<point x="138" y="86"/>
			<point x="281" y="-2" type="curve" smooth="yes"/>
			<point x="302" y="-15"/>
			<point x="325" y="-24"/>
			<point x="347" y="-24" type="curve" smooth="yes"/>
			<point x="361" y="-24"/>
			<point x="376" y="-20"/>
			<point x="389" y="-12" type="curve"/>
			<point x="400" y="-6"/>
			<point x="405" y="3"/>
			<point x="405" y="11" type="curve" smooth="yes"/>
			<point x="405" y="21"/>
			<point x="398" y="31"/>
			<point x="386" y="37" type="curve" smooth="yes"/>
			<point x="251" y="109"/>
			<point x="203" y="284"/>
			<point x="203" y="429" type="curve" smooth="yes"/>
			<point x="203" y="524"/>
			<point x="222" y="621"/>
			<point x="266" y="706" type="curve" smooth="yes"/>
			<point x="330" y="833"/>
			<point x="462" y="931"/>
			<point x="605" y="930" type="curve" smooth="yes"/>
			<point x="653" y="930"/>
			<point x="692" y="924"/>
			<point x="738" y="910" type="curve"/>
			<point x="571" y="790"/>
			<point x="485" y="609"/>
			<point x="485" y="401" type="curve" smooth="yes"/>
			<point x="485" y="315"/>
			<point x="503" y="223"/>
			<point x="543" y="148" type="curve" smooth="yes"/>
			<point x="603" y="34"/>
			<point x="706" y="-24"/>
		</contour>
		<contour>
			<point x="2496" y="71" type="line"/>
			<point x="1905" y="71" type="line"/>
			<point x="1905" y="610" type="line" smooth="yes"/>
			<point x="1905" y="789"/>
			<point x="2008" y="929"/>
			<point x="2192" y="929" type="curve" smooth="yes"/>
			<point x="2372" y="929"/>
			<point x="2496" y="784"/>
			<point x="2496" y="605" type="curve" smooth="yes"/>
		</contour>
		<contour>
			<point x="831" y="46" type="curve" smooth="yes"/>
			<point x="751" y="46"/>
			<point x="695" y="98"/>
			<point x="659" y="169" type="curve" smooth="yes"/>
			<point x="624" y="239"/>
			<point x="608" y="327"/>
			<point x="608" y="401" type="curve" smooth="yes"/>
			<point x="608" y="586"/>
			<point x="682" y="757"/>
			<point x="832" y="865" type="curve"/>
			<point x="983" y="757"/>
			<point x="1057" y="588"/>
			<point x="1057" y="401" type="curve" smooth="yes"/>
			<point x="1057" y="322"/>
			<point x="1042" y="238"/>
			<point x="1005" y="169" type="curve" smooth="yes"/>
			<point x="968" y="101"/>
			<point x="911" y="46"/>
		</contour>
	</outline>
</glyph>
