<?xml version="1.0" encoding="UTF-8"?>
<glyph name="_n1n1" format="2">
	<advance height="2048" width="1352"/>
	<outline>
		<contour>
			<point x="1125" y="-636" type="curve" smooth="yes"/>
			<point x="1145" y="-636"/>
			<point x="1164" y="-632"/>
			<point x="1178" y="-626" type="curve" smooth="yes"/>
			<point x="1297" y="-575"/>
			<point x="1352" y="-457"/>
			<point x="1352" y="-333" type="curve" smooth="yes"/>
			<point x="1352" y="-284"/>
			<point x="1343" y="-234"/>
			<point x="1321" y="-190" type="curve" smooth="yes"/>
			<point x="1269" y="-84"/>
			<point x="1156" y="-36"/>
			<point x="1041" y="-36" type="curve" smooth="yes"/>
			<point x="974" y="-36"/>
			<point x="904" y="-53"/>
			<point x="852" y="-96" type="curve"/>
			<point x="802" y="-53"/>
			<point x="741" y="-35"/>
			<point x="676" y="-36" type="curve" smooth="yes"/>
			<point x="611" y="-36"/>
			<point x="549" y="-54"/>
			<point x="500" y="-96" type="curve"/>
			<point x="448" y="-53"/>
			<point x="378" y="-36"/>
			<point x="311" y="-36" type="curve" smooth="yes"/>
			<point x="196" y="-36"/>
			<point x="83" y="-85"/>
			<point x="31" y="-190" type="curve" smooth="yes"/>
			<point x="9" y="-235"/>
			<point x="0" y="-285"/>
			<point x="0" y="-333" type="curve" smooth="yes"/>
			<point x="0" y="-457"/>
			<point x="55" y="-576"/>
			<point x="174" y="-626" type="curve" smooth="yes"/>
			<point x="189" y="-632"/>
			<point x="208" y="-636"/>
			<point x="227" y="-636" type="curve" smooth="yes"/>
			<point x="248" y="-636"/>
			<point x="269" y="-632"/>
			<point x="283" y="-622" type="curve" smooth="yes"/>
			<point x="292" y="-616"/>
			<point x="296" y="-609"/>
			<point x="296" y="-602" type="curve" smooth="yes"/>
			<point x="296" y="-591"/>
			<point x="285" y="-581"/>
			<point x="270" y="-575" type="curve" smooth="yes"/>
			<point x="178" y="-537"/>
			<point x="143" y="-423"/>
			<point x="143" y="-332" type="curve" smooth="yes"/>
			<point x="143" y="-294"/>
			<point x="149" y="-255"/>
			<point x="164" y="-220" type="curve" smooth="yes"/>
			<point x="187" y="-163"/>
			<point x="245" y="-105"/>
			<point x="311" y="-105" type="curve" smooth="yes"/>
			<point x="394" y="-105"/>
			<point x="429" y="-181"/>
			<point x="429" y="-253" type="curve" smooth="yes"/>
			<point x="429" y="-601" type="line" smooth="yes"/>
			<point x="429" y="-629"/>
			<point x="479" y="-636"/>
			<point x="500" y="-636" type="curve" smooth="yes"/>
			<point x="520" y="-636"/>
			<point x="571" y="-629"/>
			<point x="571" y="-601" type="curve" smooth="yes"/>
			<point x="571" y="-253" type="line" smooth="yes"/>
			<point x="571" y="-192"/>
			<point x="603" y="-106"/>
			<point x="676" y="-106" type="curve" smooth="yes"/>
			<point x="749" y="-106"/>
			<point x="781" y="-192"/>
			<point x="781" y="-252" type="curve" smooth="yes"/>
			<point x="781" y="-601" type="line" smooth="yes"/>
			<point x="781" y="-628"/>
			<point x="831" y="-635"/>
			<point x="852" y="-635" type="curve" smooth="yes"/>
			<point x="872" y="-635"/>
			<point x="923" y="-629"/>
			<point x="923" y="-601" type="curve" smooth="yes"/>
			<point x="923" y="-252" type="line" smooth="yes"/>
			<point x="923" y="-181"/>
			<point x="958" y="-105"/>
			<point x="1041" y="-105" type="curve" smooth="yes"/>
			<point x="1107" y="-105"/>
			<point x="1165" y="-163"/>
			<point x="1188" y="-220" type="curve" smooth="yes"/>
			<point x="1203" y="-255"/>
			<point x="1209" y="-294"/>
			<point x="1209" y="-332" type="curve" smooth="yes"/>
			<point x="1209" y="-423"/>
			<point x="1174" y="-538"/>
			<point x="1082" y="-575" type="curve" smooth="yes"/>
			<point x="1067" y="-581"/>
			<point x="1056" y="-591"/>
			<point x="1056" y="-601" type="curve" smooth="yes"/>
			<point x="1056" y="-608"/>
			<point x="1060" y="-615"/>
			<point x="1069" y="-621" type="curve" smooth="yes"/>
			<point x="1084" y="-631"/>
			<point x="1105" y="-636"/>
		</contour>
	</outline>
</glyph>
