<?xml version="1.0" encoding="UTF-8"?>
<glyph name="Acircumflex" format="2">
	<unicode hex="00C2"/>
	<advance width="1413"/>
	<outline>
		<component base="A"/>
		<component base="asciicircum" xOffset="300" yOffset="334"/>
	</outline>
</glyph>
