<?xml version="1.0" encoding="UTF-8"?>
<glyph name="Dcaron" format="2">
	<unicode hex="010E"/>
	<advance width="1355"/>
	<outline>
		<component base="asciicircum" yScale="-1" xOffset="217" yOffset="3066"/>
		<component base="D"/>
	</outline>
</glyph>
