<?xml version="1.0" encoding="UTF-8"?>
<glyph name="n1th3" format="2">
	<advance height="2048" width="1830"/>
	<outline>
		<contour>
			<point x="1376" y="-24" type="curve" smooth="yes"/>
			<point x="1544" y="-24"/>
			<point x="1750" y="46"/>
			<point x="1750" y="245" type="curve" smooth="yes"/>
			<point x="1750" y="341"/>
			<point x="1691" y="429"/>
			<point x="1604" y="471" type="curve"/>
			<point x="1679" y="518"/>
			<point x="1728" y="601"/>
			<point x="1728" y="689" type="curve" smooth="yes"/>
			<point x="1728" y="930"/>
			<point x="1489" y="999"/>
			<point x="1289" y="999" type="curve" smooth="yes"/>
			<point x="1164" y="999"/>
			<point x="996" y="971"/>
			<point x="898" y="887" type="curve"/>
			<point x="812" y="976"/>
			<point x="703" y="1000"/>
			<point x="582" y="1000" type="curve" smooth="yes"/>
			<point x="392" y="1000"/>
			<point x="214" y="910"/>
			<point x="132" y="738" type="curve" smooth="yes"/>
			<point x="94" y="661"/>
			<point x="80" y="574"/>
			<point x="80" y="489" type="curve" smooth="yes"/>
			<point x="80" y="281"/>
			<point x="171" y="75"/>
			<point x="371" y="-11" type="curve" smooth="yes"/>
			<point x="391" y="-20"/>
			<point x="415" y="-24"/>
			<point x="439" y="-24" type="curve" smooth="yes"/>
			<point x="467" y="-24"/>
			<point x="496" y="-18"/>
			<point x="517" y="-2" type="curve" smooth="yes"/>
			<point x="531" y="9"/>
			<point x="537" y="20"/>
			<point x="537" y="31" type="curve" smooth="yes"/>
			<point x="537" y="49"/>
			<point x="521" y="66"/>
			<point x="498" y="76" type="curve" smooth="yes"/>
			<point x="340" y="141"/>
			<point x="283" y="341"/>
			<point x="283" y="497" type="curve" smooth="yes"/>
			<point x="283" y="562"/>
			<point x="294" y="628"/>
			<point x="318" y="688" type="curve" smooth="yes"/>
			<point x="361" y="795"/>
			<point x="459" y="889"/>
			<point x="582" y="889" type="curve" smooth="yes"/>
			<point x="733" y="889"/>
			<point x="794" y="775"/>
			<point x="794" y="640" type="curve" smooth="yes"/>
			<point x="794" y="32" type="line" smooth="yes"/>
			<point x="794" y="-10"/>
			<point x="863" y="-24"/>
			<point x="896" y="-24" type="curve" smooth="yes"/>
			<point x="926" y="-24"/>
			<point x="997" y="-11"/>
			<point x="997" y="32" type="curve" smooth="yes"/>
			<point x="997" y="621" type="line" smooth="yes"/>
			<point x="997" y="806"/>
			<point x="1114" y="888"/>
			<point x="1289" y="888" type="curve" smooth="yes"/>
			<point x="1417" y="888"/>
			<point x="1525" y="829"/>
			<point x="1526" y="689" type="curve" smooth="yes"/>
			<point x="1527" y="632"/>
			<point x="1499" y="571"/>
			<point x="1445" y="544" type="curve" smooth="yes"/>
			<point x="1406" y="525"/>
			<point x="1355" y="521"/>
			<point x="1306" y="522" type="curve" smooth="yes"/>
			<point x="1236" y="523" type="line" smooth="yes"/>
			<point x="1203" y="523"/>
			<point x="1134" y="510"/>
			<point x="1133" y="468" type="curve"/>
			<point x="1133" y="427"/>
			<point x="1200" y="412"/>
			<point x="1232" y="412" type="curve" smooth="yes"/>
			<point x="1310" y="412" type="line" smooth="yes"/>
			<point x="1358" y="412"/>
			<point x="1405" y="410"/>
			<point x="1446" y="394" type="curve" smooth="yes"/>
			<point x="1508" y="370"/>
			<point x="1547" y="311"/>
			<point x="1547" y="245" type="curve" smooth="yes"/>
			<point x="1547" y="146"/>
			<point x="1474" y="87"/>
			<point x="1376" y="87" type="curve" smooth="yes"/>
			<point x="1336" y="87"/>
			<point x="1296" y="95"/>
			<point x="1259" y="110" type="curve" smooth="yes"/>
			<point x="1241" y="117"/>
			<point x="1219" y="121"/>
			<point x="1196" y="121" type="curve" smooth="yes"/>
			<point x="1167" y="121"/>
			<point x="1137" y="114"/>
			<point x="1117" y="99" type="curve" smooth="yes"/>
			<point x="1103" y="89"/>
			<point x="1097" y="77"/>
			<point x="1097" y="67" type="curve" smooth="yes"/>
			<point x="1097" y="48"/>
			<point x="1114" y="31"/>
			<point x="1138" y="21" type="curve" smooth="yes"/>
			<point x="1212" y="-9"/>
			<point x="1296" y="-24"/>
		</contour>
	</outline>
</glyph>
