<?xml version="1.0" encoding="UTF-8"?>
<glyph name="nht3r3u1" format="2">
	<advance width="4055.0247687686"/>
	<outline>
		<component base="nht3r3"/>
		<component base="u_sign_drop" xOffset="3319.8660673468" yOffset="-196.0555278727"/>
	</outline>
</glyph>
