<?xml version="1.0" encoding="UTF-8"?>
<glyph name="p2r3" format="2">
	<advance height="2048" width="2342"/>
	<outline>
		<contour>
			<point x="1271" y="-486" type="curve" smooth="yes"/>
			<point x="1493" y="-486"/>
			<point x="1805" y="-447"/>
			<point x="2002" y="-341" type="curve" smooth="yes"/>
			<point x="2139" y="-268"/>
			<point x="2242" y="-156"/>
			<point x="2242" y="5" type="curve" smooth="yes"/>
			<point x="2242" y="596" type="line" smooth="yes"/>
			<point x="2242" y="849"/>
			<point x="2017" y="1000"/>
			<point x="1777" y="1000" type="curve" smooth="yes"/>
			<point x="1534" y="1000"/>
			<point x="1326" y="855"/>
			<point x="1326" y="602" type="curve" smooth="yes"/>
			<point x="1326" y="112" type="line"/>
			<point x="1142" y="112" type="line"/>
			<point x="1172" y="160"/>
			<point x="1185" y="211"/>
			<point x="1185" y="267" type="curve" smooth="yes"/>
			<point x="1185" y="467"/>
			<point x="1001" y="569"/>
			<point x="815" y="569" type="curve" smooth="yes"/>
			<point x="631" y="569"/>
			<point x="443" y="469"/>
			<point x="443" y="268" type="curve" smooth="yes"/>
			<point x="443" y="150"/>
			<point x="505" y="53"/>
			<point x="614" y="3" type="curve" smooth="yes"/>
			<point x="634" y="-6"/>
			<point x="659" y="-12"/>
			<point x="684" y="-12" type="curve" smooth="yes"/>
			<point x="712" y="-12"/>
			<point x="740" y="-5"/>
			<point x="761" y="9" type="curve" smooth="yes"/>
			<point x="777" y="20"/>
			<point x="783" y="32"/>
			<point x="783" y="44" type="curve" smooth="yes"/>
			<point x="783" y="61"/>
			<point x="768" y="78"/>
			<point x="745" y="88" type="curve" smooth="yes"/>
			<point x="676" y="119"/>
			<point x="646" y="197"/>
			<point x="646" y="267" type="curve" smooth="yes"/>
			<point x="646" y="364"/>
			<point x="709" y="459"/>
			<point x="815" y="458" type="curve" smooth="yes"/>
			<point x="922" y="458"/>
			<point x="982" y="363"/>
			<point x="982" y="267" type="curve" smooth="yes"/>
			<point x="982" y="200"/>
			<point x="958" y="132"/>
			<point x="897" y="96" type="curve" smooth="yes"/>
			<point x="883" y="88"/>
			<point x="868" y="74"/>
			<point x="868" y="56" type="curve" smooth="yes"/>
			<point x="868" y="14"/>
			<point x="938" y="0"/>
			<point x="970" y="0" type="curve" smooth="yes"/>
			<point x="2038" y="0" type="line"/>
			<point x="2037" y="-100"/>
			<point x="1975" y="-184"/>
			<point x="1894" y="-239" type="curve" smooth="yes"/>
			<point x="1738" y="-345"/>
			<point x="1457" y="-375"/>
			<point x="1271" y="-375" type="curve" smooth="yes"/>
			<point x="945" y="-375"/>
			<point x="562" y="-290"/>
			<point x="383" y="4" type="curve" smooth="yes"/>
			<point x="315" y="116"/>
			<point x="282" y="260"/>
			<point x="282" y="390" type="curve" smooth="yes"/>
			<point x="282" y="585"/>
			<point x="342" y="795"/>
			<point x="515" y="908" type="curve" smooth="yes"/>
			<point x="532" y="919"/>
			<point x="539" y="932"/>
			<point x="539" y="944" type="curve" smooth="yes"/>
			<point x="539" y="961"/>
			<point x="526" y="977"/>
			<point x="503" y="987" type="curve"/>
			<point x="485" y="996"/>
			<point x="461" y="1000"/>
			<point x="438" y="1000" type="curve" smooth="yes"/>
			<point x="410" y="1000"/>
			<point x="381" y="994"/>
			<point x="360" y="980" type="curve" smooth="yes"/>
			<point x="161" y="850"/>
			<point x="80" y="618"/>
			<point x="80" y="390" type="curve" smooth="yes"/>
			<point x="80" y="223"/>
			<point x="127" y="54"/>
			<point x="226" y="-82" type="curve" smooth="yes"/>
			<point x="454" y="-397"/>
			<point x="902" y="-486"/>
		</contour>
		<contour>
			<point x="2040" y="112" type="line"/>
			<point x="1528" y="112" type="line"/>
			<point x="1528" y="602" type="line" smooth="yes"/>
			<point x="1528" y="750"/>
			<point x="1612" y="888"/>
			<point x="1775" y="888" type="curve" smooth="yes"/>
			<point x="1939" y="888"/>
			<point x="2040" y="749"/>
			<point x="2040" y="596" type="curve" smooth="yes"/>
		</contour>
	</outline>
</glyph>
