<?xml version="1.0" encoding="UTF-8"?>
<glyph name="t3r3" format="2">
	<advance height="2048" width="2660"/>
	<outline>
		<contour>
			<point x="2077" y="-24" type="curve" smooth="yes"/>
			<point x="2146" y="-24"/>
			<point x="2214" y="-12"/>
			<point x="2276" y="12" type="curve"/>
			<point x="2252" y="-24"/>
			<point x="2220" y="-68"/>
			<point x="2190" y="-98" type="curve" smooth="yes"/>
			<point x="1991" y="-302"/>
			<point x="1681" y="-374"/>
			<point x="1405" y="-374" type="curve" smooth="yes"/>
			<point x="1153" y="-374"/>
			<point x="867" y="-315"/>
			<point x="654" y="-182" type="curve" smooth="yes"/>
			<point x="402" y="-25"/>
			<point x="291" y="187"/>
			<point x="283" y="477" type="curve" smooth="yes"/>
			<point x="278" y="637"/>
			<point x="342" y="818"/>
			<point x="483" y="906" type="curve" smooth="yes"/>
			<point x="501" y="917"/>
			<point x="509" y="930"/>
			<point x="509" y="943" type="curve" smooth="yes"/>
			<point x="509" y="959"/>
			<point x="496" y="975"/>
			<point x="475" y="985" type="curve" smooth="yes"/>
			<point x="455" y="995"/>
			<point x="432" y="1000"/>
			<point x="408" y="1000" type="curve" smooth="yes"/>
			<point x="381" y="1000"/>
			<point x="353" y="993"/>
			<point x="332" y="980" type="curve" smooth="yes"/>
			<point x="159" y="872"/>
			<point x="75" y="673"/>
			<point x="80" y="477" type="curve" smooth="yes"/>
			<point x="89" y="122"/>
			<point x="258" y="-130"/>
			<point x="572" y="-296" type="curve" smooth="yes"/>
			<point x="819" y="-426"/>
			<point x="1126" y="-486"/>
			<point x="1405" y="-486" type="curve" smooth="yes"/>
			<point x="1722" y="-486"/>
			<point x="2078" y="-406"/>
			<point x="2316" y="-184" type="curve" smooth="yes"/>
			<point x="2497" y="-16"/>
			<point x="2580" y="209"/>
			<point x="2580" y="453" type="curve" smooth="yes"/>
			<point x="2580" y="531"/>
			<point x="2573" y="607"/>
			<point x="2555" y="676" type="curve" smooth="yes"/>
			<point x="2519" y="810"/>
			<point x="2441" y="922"/>
			<point x="2288" y="987" type="curve" smooth="yes"/>
			<point x="2268" y="996"/>
			<point x="2244" y="1000"/>
			<point x="2220" y="1000" type="curve" smooth="yes"/>
			<point x="2192" y="1000"/>
			<point x="2163" y="993"/>
			<point x="2142" y="978" type="curve" smooth="yes"/>
			<point x="2127" y="967"/>
			<point x="2121" y="956"/>
			<point x="2121" y="945" type="curve" smooth="yes"/>
			<point x="2121" y="927"/>
			<point x="2138" y="910"/>
			<point x="2161" y="900" type="curve" smooth="yes"/>
			<point x="2317" y="836"/>
			<point x="2376" y="654"/>
			<point x="2376" y="500" type="curve" smooth="yes"/>
			<point x="2376" y="434"/>
			<point x="2366" y="349"/>
			<point x="2341" y="288" type="curve" smooth="yes"/>
			<point x="2299" y="181"/>
			<point x="2200" y="87"/>
			<point x="2077" y="87" type="curve" smooth="yes"/>
			<point x="1925" y="87"/>
			<point x="1865" y="208"/>
			<point x="1865" y="341" type="curve" smooth="yes"/>
			<point x="1865" y="944" type="line" smooth="yes"/>
			<point x="1865" y="986"/>
			<point x="1795" y="1000"/>
			<point x="1763" y="1000" type="curve" smooth="yes"/>
			<point x="1731" y="1000"/>
			<point x="1662" y="986"/>
			<point x="1662" y="944" type="curve" smooth="yes"/>
			<point x="1662" y="341" type="line" smooth="yes"/>
			<point x="1662" y="220"/>
			<point x="1621" y="87"/>
			<point x="1477" y="87" type="curve" smooth="yes"/>
			<point x="1398" y="87"/>
			<point x="1332" y="159"/>
			<point x="1308" y="226" type="curve" smooth="yes"/>
			<point x="1276" y="314"/>
			<point x="1278" y="408"/>
			<point x="1277" y="500" type="curve" smooth="yes"/>
			<point x="1276" y="605"/>
			<point x="1275" y="717"/>
			<point x="1230" y="814" type="curve" smooth="yes"/>
			<point x="1167" y="951"/>
			<point x="1040" y="1000"/>
			<point x="893" y="1000" type="curve" smooth="yes"/>
			<point x="699" y="1000"/>
			<point x="550" y="902"/>
			<point x="481" y="725" type="curve" smooth="yes"/>
			<point x="452" y="653"/>
			<point x="440" y="577"/>
			<point x="440" y="500" type="curve" smooth="yes"/>
			<point x="440" y="279"/>
			<point x="547" y="78"/>
			<point x="757" y="-10" type="curve" smooth="yes"/>
			<point x="778" y="-19"/>
			<point x="803" y="-24"/>
			<point x="828" y="-24" type="curve" smooth="yes"/>
			<point x="858" y="-24"/>
			<point x="887" y="-16"/>
			<point x="909" y="2" type="curve" smooth="yes"/>
			<point x="921" y="12"/>
			<point x="926" y="23"/>
			<point x="926" y="33" type="curve" smooth="yes"/>
			<point x="926" y="52"/>
			<point x="906" y="70"/>
			<point x="881" y="79" type="curve" smooth="yes"/>
			<point x="715" y="138"/>
			<point x="642" y="339"/>
			<point x="642" y="500" type="curve" smooth="yes"/>
			<point x="641" y="564"/>
			<point x="653" y="623"/>
			<point x="675" y="685" type="curve" smooth="yes"/>
			<point x="707" y="780"/>
			<point x="777" y="889"/>
			<point x="893" y="889" type="curve" smooth="yes"/>
			<point x="973" y="889"/>
			<point x="1019" y="834"/>
			<point x="1044" y="765" type="curve" smooth="yes"/>
			<point x="1073" y="683"/>
			<point x="1073" y="586"/>
			<point x="1074" y="500" type="curve" smooth="yes"/>
			<point x="1074" y="400"/>
			<point x="1075" y="300"/>
			<point x="1110" y="205" type="curve" smooth="yes"/>
			<point x="1165" y="52"/>
			<point x="1318" y="-24"/>
			<point x="1477" y="-24" type="curve" smooth="yes"/>
			<point x="1583" y="-24"/>
			<point x="1691" y="3"/>
			<point x="1768" y="77" type="curve"/>
			<point x="1851" y="2"/>
			<point x="1967" y="-24"/>
		</contour>
	</outline>
</glyph>
